…
9. Which two species have, on average, the highest weight? Once you have identified them, make a new column that is a ratio of `weight` to `hindfoot_length`. Make a plot that shows the range of this new ratio and fill by sex.

NL and DS have the highest average weight

```r
deserts %>% 
  select(species_id, weight) %>% 
  filter(weight !="NA") %>% 
  arrange(desc(weight))
```

```
## # A tibble: 32,283 × 2
##    species_id weight
##    <chr>       <dbl>
##  1 NL            280
##  2 NL            278
##  3 NL            275
##  4 NL            274
##  5 NL            270
##  6 NL            269
##  7 NL            265
##  8 NL            264
##  9 NL            260
## 10 NL            260
## # … with 32,273 more rows
```
…
