…
names of countries in income data:

```r
income_long %>% 
  count(country) %>% 
  select(country)
```

```
## # A tibble: 193 × 1
##    country            
##    <chr>              
##  1 Afghanistan        
##  2 Albania            
##  3 Algeria            
##  4 Andorra            
##  5 Angola             
##  6 Antigua and Barbuda
##  7 Argentina          
##  8 Armenia            
##  9 Australia          
## 10 Austria            
## # … with 183 more rows
```
…
names of countries in life_expectancy data:

```r
life_expectancy_long %>% 
  count(country) %>% 
  select(country)
```

```
## # A tibble: 187 × 1
##    country            
##    <chr>              
##  1 Afghanistan        
##  2 Albania            
##  3 Algeria            
##  4 Andorra            
##  5 Angola             
##  6 Antigua and Barbuda
##  7 Argentina          
##  8 Armenia            
##  9 Australia          
## 10 Austria            
## # … with 177 more rows
```
…
```r
population_long %>% 
  count(country) %>% 
  select(country)
```

```
## # A tibble: 195 × 1
##    country            
##    <chr>              
##  1 Afghanistan        
##  2 Albania            
##  3 Algeria            
##  4 Andorra            
##  5 Angola             
##  6 Antigua and Barbuda
##  7 Argentina          
##  8 Armenia            
##  9 Australia          
## 10 Austria            
## # … with 185 more rows
```
…
```r
population_100 <- population_relimit
```


```r
gapminder_join <- inner_join(life_expectancy_100, population_100, by= c("country", "year"))
gapminder_join <- inner_join(gapminder_join, income_100, by= c("country", "year"))
gapminder_join
```

```
## # A tibble: 18,887 × 5
##    country     year  avg_life_expectancy population_size income
##    <chr>       <chr>               <dbl>           <dbl>  <dbl>
##  1 Afghanistan 1920                 30.6        10600000   1490
##  2 Afghanistan 1921                 30.7        10500000   1520
##  3 Afghanistan 1922                 30.8        10300000   1550
##  4 Afghanistan 1923                 30.8         9710000   1570
##  5 Afghanistan 1924                 30.9         9200000   1600
##  6 Afghanistan 1925                 31           8720000   1630
##  7 Afghanistan 1926                 31           8260000   1650
##  8 Afghanistan 1927                 31.1         7830000   1680
##  9 Afghanistan 1928                 31.1         7420000   1710
## 10 Afghanistan 1929                 31.2         7100000   1740
## # … with 18,877 more rows
```
…
