…
```r
ducks %>% 
  select(habitat, common_name, scientific_name) %>% 
  group_by(habitat) %>% 
  summarize(habitat, common_name, scientific_name, total=n())
```

```
## `summarise()` has grouped output by 'habitat'. You can override using the
## `.groups` argument.
```

```
## # A tibble: 44 × 4
## # Groups:   habitat [2]
##    habitat common_name                      scientific_name                total
##    <chr>   <chr>                            <chr>                          <int>
##  1 Ocean   "Common Eider"                   Somateria mollissima               1
##  2 Wetland "American Black Duck"            Anas rubripes                     43
##  3 Wetland "American Wigeon"                Anas americana                    43
##  4 Wetland "Barrow's Goldeneye"             Bucephala islandica               43
##  5 Wetland "Black Brant"                    Branta bernicla                   43
##  6 Wetland "Black Scoter"                   Melanitta americana               43
##  7 Wetland "Black-bellied Whistling-Duck"   Dendrocygna autumnalis            43
##  8 Wetland "Blue-winged Teal"               Anas discors                      43
##  9 Wetland "Bufflehead"                     Bucephala albeola                 43
## 10 Wetland "Cackling and Canada Goose \xa0" Branta hutchinsii and B. cana…    43
## # … with 34 more rows
```
…
