…
```r
class(fisheries$fao_major_fishing_area)
```

```
## [1] "factor"
```

```r
fisheries
```

```
## # A tibble: 17,692 × 71
##    country common_…¹ issca…² issca…³ asfis…⁴ asfis…⁵ fao_m…⁶ measure x1950 x1951
##    <fct>   <chr>     <fct>   <chr>   <fct>   <chr>   <fct>   <chr>   <chr> <chr>
##  1 Albania Angelsha… 38      Sharks… 10903X… Squati… 37      Quanti… <NA>  <NA> 
##  2 Albania Atlantic… 36      Tunas,… 175010… Sarda … 37      Quanti… <NA>  <NA> 
##  3 Albania Barracud… 37      Miscel… 177100… Sphyra… 37      Quanti… <NA>  <NA> 
##  4 Albania Blue and… 45      Shrimp… 228020… Ariste… 37      Quanti… <NA>  <NA> 
##  5 Albania Blue whi… 32      Cods, … 148040… Microm… 37      Quanti… <NA>  <NA> 
##  6 Albania Bluefish  37      Miscel… 170202… Pomato… 37      Quanti… <NA>  <NA> 
##  7 Albania Bogue     33      Miscel… 170392… Boops … 37      Quanti… <NA>  <NA> 
##  8 Albania Caramote… 45      Shrimp… 228010… Penaeu… 37      Quanti… <NA>  <NA> 
##  9 Albania Catshark… 38      Sharks… 108010… Scylio… 37      Quanti… <NA>  <NA> 
## 10 Albania Common c… 57      Squids… 321020… Sepia … 37      Quanti… <NA>  <NA> 
## # … with 17,682 more rows, 61 more variables: x1952 <chr>, x1953 <chr>,
## #   x1954 <chr>, x1955 <chr>, x1956 <chr>, x1957 <chr>, x1958 <chr>,
## #   x1959 <chr>, x1960 <chr>, x1961 <chr>, x1962 <chr>, x1963 <chr>,
## #   x1964 <chr>, x1965 <chr>, x1966 <chr>, x1967 <chr>, x1968 <chr>,
## #   x1969 <chr>, x1970 <chr>, x1971 <chr>, x1972 <chr>, x1973 <chr>,
## #   x1974 <chr>, x1975 <chr>, x1976 <chr>, x1977 <chr>, x1978 <chr>,
## #   x1979 <chr>, x1980 <chr>, x1981 <chr>, x1982 <chr>, x1983 <chr>, …
```
…
fisheries_tidy$catch <- as.numeric(fisheries_tidy$catch)
```


```r
fisheries_tidy
```

```
## # A tibble: 376,771 × 10
##    country common_…¹ issca…² issca…³ asfis…⁴ asfis…⁵ fao_m…⁶ measure  year catch
##    <fct>   <chr>     <fct>   <chr>   <fct>   <chr>   <fct>   <chr>   <dbl> <dbl>
##  1 Albania Angelsha… 38      Sharks… 10903X… Squati… 37      Quanti…  1995    NA
##  2 Albania Angelsha… 38      Sharks… 10903X… Squati… 37      Quanti…  1996    53
##  3 Albania Angelsha… 38      Sharks… 10903X… Squati… 37      Quanti…  1997    20
##  4 Albania Angelsha… 38      Sharks… 10903X… Squati… 37      Quanti…  1998    31
##  5 Albania Angelsha… 38      Sharks… 10903X… Squati… 37      Quanti…  1999    30
##  6 Albania Angelsha… 38      Sharks… 10903X… Squati… 37      Quanti…  2000    30
##  7 Albania Angelsha… 38      Sharks… 10903X… Squati… 37      Quanti…  2001    16
##  8 Albania Angelsha… 38      Sharks… 10903X… Squati… 37      Quanti…  2002    79
##  9 Albania Angelsha… 38      Sharks… 10903X… Squati… 37      Quanti…  2003     1
## 10 Albania Angelsha… 38      Sharks… 10903X… Squati… 37      Quanti…  2004     4
## # … with 376,761 more rows, and abbreviated variable names ¹​common_name,
## #   ²​isscaap_group_number, ³​isscaap_taxonomic_group, ⁴​asfis_species_number,
## #   ⁵​asfis_species_name, ⁶​fao_major_fishing_area
```


3. How many countries are represented in the data? Provide a count and list their names.
203 countries are represented in the data.

```r
fisheries_tidy %>% 
  count(country, sort=T)
```

```
## # A tibble: 203 × 2
##    country                      n
##    <fct>                    <int>
##  1 United States of America 18080
##  2 Spain                    17482
##  3 Japan                    15429
##  4 Portugal                 11570
##  5 Korea, Republic of       10824
##  6 France                   10639
##  7 Taiwan Province of China  9927
##  8 Indonesia                 9274
##  9 Australia                 8183
## 10 Un. Sov. Soc. Rep.        7084
## # … with 193 more rows
```

4. Refocus the data only to include country, isscaap_taxonomic_group, asfis_species_name, asfis_species_number, year, catch.

```r
fisheries_new <- fisheries_tidy %>% 
  select(country, isscaap_taxonomic_group, asfis_species_name, asfis_species_number, year, catch)
fisheries_new
```

```
## # A tibble: 376,771 × 6
##    country isscaap_taxonomic_group asfis_species_name asfis_specie…¹  year catch
##    <fct>   <chr>                   <chr>              <fct>          <dbl> <dbl>
##  1 Albania Sharks, rays, chimaeras Squatinidae        10903XXXXX      1995    NA
##  2 Albania Sharks, rays, chimaeras Squatinidae        10903XXXXX      1996    53
##  3 Albania Sharks, rays, chimaeras Squatinidae        10903XXXXX      1997    20
##  4 Albania Sharks, rays, chimaeras Squatinidae        10903XXXXX      1998    31
##  5 Albania Sharks, rays, chimaeras Squatinidae        10903XXXXX      1999    30
##  6 Albania Sharks, rays, chimaeras Squatinidae        10903XXXXX      2000    30
##  7 Albania Sharks, rays, chimaeras Squatinidae        10903XXXXX      2001    16
##  8 Albania Sharks, rays, chimaeras Squatinidae        10903XXXXX      2002    79
##  9 Albania Sharks, rays, chimaeras Squatinidae        10903XXXXX      2003     1
## 10 Albania Sharks, rays, chimaeras Squatinidae        10903XXXXX      2004     4
## # … with 376,761 more rows, and abbreviated variable name ¹​asfis_species_number
```

5. Based on the asfis_species_number, how many distinct fish species were caught as part of these data?
1,553 distinct fish species were caught. 

```r
fisheries %>% 
  group_by(asfis_species_number) %>% 
  summarize(n=n())
```

```
## # A tibble: 1,553 × 2
##    asfis_species_number     n
##    <fct>                <int>
##  1 1020100101               5
##  2 1020100201               1
##  3 10201XXXXX               2
##  4 1030300603               1
##  5 10303XXXXX               4
##  6 1050200201               9
##  7 1050200301               1
##  8 1050200502               3
##  9 1060100301               7
## 10 1060200501               3
## # … with 1,543 more rows
```

6. Which country had the largest overall catch in the year 2000?
China had the largest overall catch in the year 2000 at 9,068 tonnes.

```r
fisheries_new %>% 
  select(country, year, catch) %>% 
  filter(year=="2000") %>% 
  group_by(country) %>% 
  arrange(desc(catch))
```

```
## # A tibble: 8,793 × 3
## # Groups:   country [193]
##    country                   year catch
##    <fct>                    <dbl> <dbl>
##  1 China                     2000  9068
##  2 Peru                      2000  5717
##  3 Russian Federation        2000  5065
##  4 Viet Nam                  2000  4945
##  5 Chile                     2000  4299
##  6 China                     2000  3288
##  7 China                     2000  2782
##  8 United States of America  2000  2438
##  9 China                     2000  1234
## 10 Philippines               2000   999
## # … with 8,783 more rows
```
…
