…
**4. Your answer above doesn't tell the whole story since life expectancy varies by region. Make a summary that shows the min, mean, and max life expectancy by continent for all years represented in the data.**


```r
gapminder %>% 
  group_by(continent) %>% 
  select(continent, year, lifeExp) %>% 
  mutate(min_lifeExp = min(lifeExp), max_lifeExp = max(lifeExp), mean_lifeExp = mean(lifeExp)) %>% 
  arrange(continent)
```

```
## # A tibble: 1,704 × 6
## # Groups:   continent [5]
##    continent  year lifeExp min_lifeExp max_lifeExp mean_lifeExp
##    <fct>     <int>   <dbl>       <dbl>       <dbl>        <dbl>
##  1 Africa     1952    43.1        23.6        76.4         48.9
##  2 Africa     1957    45.7        23.6        76.4         48.9
##  3 Africa     1962    48.3        23.6        76.4         48.9
##  4 Africa     1967    51.4        23.6        76.4         48.9
##  5 Africa     1972    54.5        23.6        76.4         48.9
##  6 Africa     1977    58.0        23.6        76.4         48.9
##  7 Africa     1982    61.4        23.6        76.4         48.9
##  8 Africa     1987    65.8        23.6        76.4         48.9
##  9 Africa     1992    67.7        23.6        76.4         48.9
## 10 Africa     1997    69.2        23.6        76.4         48.9
## # … with 1,694 more rows
```
…
```
## `summarise()` has grouped output by 'continent', 'country'. You can override
## using the `.groups` argument.
```

```
## # A tibble: 1,704 × 4
## # Groups:   continent, country [142]
##    continent country gdpPercap largest_population_growth
##    <fct>     <fct>       <dbl>                     <int>
##  1 Asia      China        400.                 107480000
##  2 Asia      China        576.                 107480000
##  3 Asia      China        488.                 107480000
##  4 Asia      China        613.                 107480000
##  5 Asia      China        677.                 107480000
##  6 Asia      China        741.                 107480000
##  7 Asia      China        962.                 107480000
##  8 Asia      China       1379.                 107480000
##  9 Asia      China       1656.                 107480000
## 10 Asia      China       2289.                 107480000
## # … with 1,694 more rows
```
…
