…
4. The column `COSTT4_A` is the annual cost of each institution. Which city has the highest average cost? Where is it located?
Claremont has the highest average cost of tuition. Claremont is a suburb in eastern LA county. The institution with the highest cost is Harvey Mudd College. 


```r
colleges %>% 
  select(instnm, costt4_a, city) %>% 
  filter(city=="Los Angeles") %>% 
  mutate(sum_costt4_a= sum(costt4_a, na.rm=T)) %>% 
  mutate(mean_cost = sum_costt4_a/24)
```

```
## # A tibble: 24 × 5
##    instnm                                          costt…¹ city  sum_c…² mean_…³
##    <chr>                                             <dbl> <chr>   <dbl>   <dbl>
##  1 Los Angeles Southwest College                     12190 Los …  611936  25497.
##  2 Los Angeles City College                          12272 Los …  611936  25497.
##  3 Los Angeles Trade Technical College               12422 Los …  611936  25497.
##  4 California State University-Los Angeles           13385 Los …  611936  25497.
##  5 Yeshiva Ohr Elchonon Chabad West Coast Talmudi…   25800 Los …  611936  25497.
##  6 University of California-Los Angeles              33078 Los …  611936  25497.
##  7 American Jewish University                        36286 Los …  611936  25497.
##  8 FIDM-Fashion Institute of Design & Merchandisi…   46291 Los …  611936  25497.
##  9 Mount Saint Mary's University                     50406 Los …  611936  25497.
## 10 American Academy of Dramatic Arts-Los Angeles     51581 Los …  611936  25497.
## # … with 14 more rows, and abbreviated variable names ¹​costt4_a, ²​sum_costt4_a,
## #   ³​mean_cost
```
…
