…
**6. The species in `homerange` are also classified into trophic guilds. How many species are represented in each trophic guild.**  
carnivore=342 herbivore=227

```r
filter(homerange, trophic.guild=="carnivore")
```

```
## # A tibble: 342 × 24
##    taxon  commo…¹ class order family genus species prima…² N     mean.…³ log10…⁴
##    <fct>  <chr>   <chr> <fct> <chr>  <chr> <chr>   <chr>   <chr>   <dbl>   <dbl>
##  1 lake … americ… acti… angu… angui… angu… rostra… teleme… 16       887    2.95 
##  2 river… blackt… acti… cypr… catos… moxo… poecil… mark-r… <NA>     562    2.75 
##  3 river… centra… acti… cypr… cypri… camp… anomal… mark-r… 20        34    1.53 
##  4 river… rosysi… acti… cypr… cypri… clin… fundul… mark-r… 26         4    0.602
##  5 river… longno… acti… cypr… cypri… rhin… catara… mark-r… 17         4    0.602
##  6 river… muskel… acti… esoc… esoci… esox  masqui… teleme… 5       3525    3.55 
##  7 marin… pollack acti… gadi… gadid… poll… pollac… teleme… 2        737.   2.87 
##  8 marin… saithe  acti… gadi… gadid… poll… virens  teleme… 2        449.   2.65 
##  9 marin… giant … acti… perc… caran… cara… ignobi… teleme… 4        726.   2.86 
## 10 lake … rock b… acti… perc… centr… ambl… rupest… mark-r… 16       196    2.29 
## # … with 332 more rows, 13 more variables: alternative.mass.reference <chr>,
## #   mean.hra.m2 <dbl>, log10.hra <dbl>, hra.reference <chr>, realm <chr>,
## #   thermoregulation <chr>, locomotion <chr>, trophic.guild <chr>,
## #   dimension <dbl>, preymass <dbl>, log10.preymass <dbl>, PPMR <dbl>,
## #   prey.size.reference <chr>, and abbreviated variable names ¹​common.name,
## #   ²​primarymethod, ³​mean.mass.g, ⁴​log10.mass
```

```r
filter(homerange, trophic.guild=="herbivore")
```

```
## # A tibble: 227 × 24
##    taxon  commo…¹ class order family genus species prima…² N     mean.…³ log10…⁴
##    <fct>  <chr>   <chr> <fct> <chr>  <chr> <chr>   <chr>   <chr>   <dbl>   <dbl>
##  1 marin… lined … acti… perc… acant… acan… lineat… direct… <NA>   109.     2.04 
##  2 marin… orange… acti… perc… acant… naso  litura… teleme… 8      772.     2.89 
##  3 marin… bluesp… acti… perc… acant… naso  unicor… teleme… 7      152.     2.18 
##  4 marin… redlip… acti… perc… blenn… ophi… atlant… direct… 20       6.2    0.792
##  5 marin… bermud… acti… perc… kypho… kyph… sectat… teleme… 11    1087.     3.04 
##  6 marin… cherub… acti… perc… pomac… cent… argi    direct… <NA>     2.5    0.398
##  7 marin… damsel… acti… perc… pomac… chro… chromis direct… <NA>    28.4    1.45 
##  8 marin… twinsp… acti… perc… pomac… chry… biocel… direct… 18       9.19   0.963
##  9 marin… wards … acti… perc… pomac… poma… wardi   direct… <NA>    10.5    1.02 
## 10 marin… austra… acti… perc… pomac… steg… apical… direct… <NA>    45.3    1.66 
## # … with 217 more rows, 13 more variables: alternative.mass.reference <chr>,
## #   mean.hra.m2 <dbl>, log10.hra <dbl>, hra.reference <chr>, realm <chr>,
## #   thermoregulation <chr>, locomotion <chr>, trophic.guild <chr>,
## #   dimension <dbl>, preymass <dbl>, log10.preymass <dbl>, PPMR <dbl>,
## #   prey.size.reference <chr>, and abbreviated variable names ¹​common.name,
## #   ²​primarymethod, ³​mean.mass.g, ⁴​log10.mass
```
…
**10. As measured by the data, which snake species has the smallest homerange? Show all of your work, please. Look this species up online and tell me about it!** **Snake is found in taxon column**    

The snake with the smallest homerange is the Namaqua dwarf adder, also known as Bitis schneideri. It is the smallest adder in the world and is primarily found in Africa in coastal Namaqua dunes and southern Namibia. 
https://www.africansnakebiteinstitute.com/snake/namaqua-dwarf-adder/ 



```r
snake <- filter(homerange, taxon=="snakes")
snake
```

```
## # A tibble: 41 × 24
##    taxon  commo…¹ class order family genus species prima…² N     mean.…³ log10…⁴
##    <fct>  <chr>   <chr> <fct> <chr>  <chr> <chr>   <chr>   <chr>   <dbl>   <dbl>
##  1 snakes wester… rept… squa… colub… carp… vermis  radiot… 1        3.46   0.539
##  2 snakes easter… rept… squa… colub… carp… viridis radiot… 10       3.65   0.562
##  3 snakes racer   rept… squa… colub… colu… constr… teleme… 15     556.     2.75 
##  4 snakes yellow… rept… squa… colub… colu… constr… teleme… 12     144.     2.16 
##  5 snakes ringne… rept… squa… colub… diad… puncta… mark-r… <NA>     9      0.954
##  6 snakes easter… rept… squa… colub… drym… couperi teleme… 1      450      2.65 
##  7 snakes great … rept… squa… colub… elap… guttat… teleme… 12     257.     2.41 
##  8 snakes wester… rept… squa… colub… elap… obsole… teleme… 18     643.     2.81 
##  9 snakes hognos… rept… squa… colub… hete… platir… teleme… 8      147.     2.17 
## 10 snakes Europe… rept… squa… colub… hier… viridi… teleme… 32     234.     2.37 
## # … with 31 more rows, 13 more variables: alternative.mass.reference <chr>,
## #   mean.hra.m2 <dbl>, log10.hra <dbl>, hra.reference <chr>, realm <chr>,
## #   thermoregulation <chr>, locomotion <chr>, trophic.guild <chr>,
## #   dimension <dbl>, preymass <dbl>, log10.preymass <dbl>, PPMR <dbl>,
## #   prey.size.reference <chr>, and abbreviated variable names ¹​common.name,
## #   ²​primarymethod, ³​mean.mass.g, ⁴​log10.mass
```

```r
snake_new <- select(snake, "family", "genus", "common.name", "mean.hra.m2", "species")
snake_new
```

```
## # A tibble: 41 × 5
##    family     genus      common.name           mean.hra.m2 species              
##    <chr>      <chr>      <chr>                       <dbl> <chr>                
##  1 colubridae carphopis  western worm snake            700 vermis               
##  2 colubridae carphopis  eastern worm snake            253 viridis              
##  3 colubridae coluber    racer                      151000 constrictor          
##  4 colubridae coluber    yellow bellied racer       114500 constrictor flaviven…
##  5 colubridae diadophis  ringneck snake               6476 punctatus            
##  6 colubridae drymarchon eastern indigo snake      1853000 couperi              
##  7 colubridae elaphe     great plains ratsnake      150600 guttata emoryi       
##  8 colubridae elaphe     western ratsnake            46000 obsoleta             
##  9 colubridae heterodon  hognose snake              516375 platirhinos          
## 10 colubridae hierophis  European whipsnake         110900 viridiflavus         
## # … with 31 more rows
```
…
