…
2. Notice that we have some neutral superheros! Who are they?


```r
superhero_info %>% 
  select(name, alignment) %>% 
  filter(alignment=="neutral")
```

```
## # A tibble: 24 × 2
##    name         alignment
##    <chr>        <chr>    
##  1 Bizarro      neutral  
##  2 Black Flash  neutral  
##  3 Captain Cold neutral  
##  4 Copycat      neutral  
##  5 Deadpool     neutral  
##  6 Deathstroke  neutral  
##  7 Etrigan      neutral  
##  8 Galactus     neutral  
##  9 Gladiator    neutral  
## 10 Indigo       neutral  
## # … with 14 more rows
```
…
```r
superhero_info_new <- select(superhero_info, name, alignment, race)
```

## Not Human
4. List all of the superheros that are not human.

```r
superhero_info_new %>% 
  filter(race != "Human")
```

```
## # A tibble: 222 × 3
##    name         alignment race             
##    <chr>        <chr>     <chr>            
##  1 Abe Sapien   good      Icthyo Sapien    
##  2 Abin Sur     good      Ungaran          
##  3 Abomination  bad       Human / Radiation
##  4 Abraxas      bad       Cosmic Entity    
##  5 Ajax         bad       Cyborg           
##  6 Alien        bad       Xenomorph XX121  
##  7 Amazo        bad       Android          
##  8 Angel        good      Vampire          
##  9 Angel Dust   good      Mutant           
## 10 Anti-Monitor bad       God / Eternal    
## # … with 212 more rows
```
…
9. OK, so are there more good guys or bad guys that are bald (personal interest)?

Bald good guys. There are more good guys that are bald

```r
bald_good <- select(good_guys, name, hair_color) %>% 
  filter(hair_color=="No Hair")
bald_good
```

```
## # A tibble: 37 × 2
##    name            hair_color
##    <chr>           <chr>     
##  1 A-Bomb          No Hair   
##  2 Abe Sapien      No Hair   
##  3 Abin Sur        No Hair   
##  4 Beta Ray Bill   No Hair   
##  5 Bishop          No Hair   
##  6 Black Lightning No Hair   
##  7 Blaquesmith     No Hair   
##  8 Bloodhawk       No Hair   
##  9 Crimson Dynamo  No Hair   
## 10 Donatello       No Hair   
## # … with 27 more rows
```
Bald bad guys

```r
bald_bad <- select(bad_guys, name, hair_color) %>% 
  filter(hair_color=="No Hair")
bald_bad
```

```
## # A tibble: 35 × 2
##    name          hair_color
##    <chr>         <chr>     
##  1 Abomination   No Hair   
##  2 Absorbing Man No Hair   
##  3 Alien         No Hair   
##  4 Annihilus     No Hair   
##  5 Anti-Monitor  No Hair   
##  6 Black Manta   No Hair   
##  7 Bloodwraith   No Hair   
##  8 Brainiac      No Hair   
##  9 Darkseid      No Hair   
## 10 Darth Vader   No Hair   
## # … with 25 more rows
```
…
## Height to Weight Ratio
13. It's easy to be strong when you are heavy and tall, but who is heavy and short? Which superheros have the highest height to weight ratio?
Either Groot or Wolfsbane... I'm not very confident about either answer though. I'm not sure how to look at heavy and short and interpret the ratios. 

```r
superhero_info %>% 
  mutate(height_to_weight= height/weight) %>% 
  select(name, height, weight, height_to_weight) %>% 
  arrange(desc(height_to_weight))
```

```
## # A tibble: 734 × 4
##    name            height weight height_to_weight
##    <chr>            <dbl>  <dbl>            <dbl>
##  1 Groot              701      4           175.  
##  2 Galactus           876     16            54.8 
##  3 Fin Fang Foom      975     18            54.2 
##  4 Longshot           188     36             5.22
##  5 Jack-Jack           71     14             5.07
##  6 Rocket Raccoon     122     25             4.88
##  7 Dash               122     27             4.52
##  8 Howard the Duck     79     18             4.39
##  9 Swarm              196     47             4.17
## 10 Yoda                66     17             3.88
## # … with 724 more rows
```
…
14. How many superheros have a combination of accelerated healing, durability, and super strength?
10 superheros have a combination of accelerated healing, durability, and super strength. 

```r
combo_heros <- select(superhero_powers, hero_names, accelerated_healing, durability, super_strength) %>% 
  filter(accelerated_healing==TRUE) %>% 
  filter(durability==TRUE) %>% 
  filter(super_strength==TRUE)
combo_heros
```

```
## # A tibble: 97 × 4
##    hero_names   accelerated_healing durability super_strength
##    <chr>        <lgl>               <lgl>      <lgl>         
##  1 A-Bomb       TRUE                TRUE       TRUE          
##  2 Abe Sapien   TRUE                TRUE       TRUE          
##  3 Angel        TRUE                TRUE       TRUE          
##  4 Anti-Monitor TRUE                TRUE       TRUE          
##  5 Anti-Venom   TRUE                TRUE       TRUE          
##  6 Aquaman      TRUE                TRUE       TRUE          
##  7 Arachne      TRUE                TRUE       TRUE          
##  8 Archangel    TRUE                TRUE       TRUE          
##  9 Ardina       TRUE                TRUE       TRUE          
## 10 Ares         TRUE                TRUE       TRUE          
## # … with 87 more rows
```
…
